"Submitted Notifications for Production Encoder"
"Reference Number","Date Filed","Date Approved",Department,Section,From
2016-08-00001,2016-08-03,,WAREHOUSE,"HUMAN RESOURCE RECRUITMENT","QUINTO MARION B"
2016-08-00002,2016-08-03,,WAREHOUSE,"HUMAN RESOURCE RECRUITMENT","QUINTO MARION B"
2016-08-00003,2016-08-03,,WAREHOUSE,"HUMAN RESOURCE RECRUITMENT","QUINTO MARION B"
2016-08-00004,2016-08-03,,WAREHOUSE,"HUMAN RESOURCE RECRUITMENT","QUINTO MARION B"
2016-08-00005,2016-08-03,,WAREHOUSE,"HUMAN RESOURCE RECRUITMENT","QUINTO MARION B"
2016-08-00006,2016-08-09,,WAREHOUSE,"HUMAN RESOURCE RECRUITMENT","QUINTO MARION B"
2016-08-00007,2016-08-18,,"HUMAN RESOURCE","TALENT ADMIN SERVICES& EMPLOYEE RELATION","BELTRAN TRIXIE J"
